EESchema Schematic File Version 4
EELAYER 30 0
EELAYER END
$Descr A4 11693 8268
encoding utf-8
Sheet 1 1
Title ""
Date ""
Rev ""
Comp ""
Comment1 ""
Comment2 ""
Comment3 ""
Comment4 ""
$EndDescr
$Comp
L MCU_Microchip_ATtiny:ATtiny412-SS U1
U 1 1 5E80C84E
P 4150 3950
F 0 "U1" H 3621 3996 50  0000 R CNN
F 1 "ATtiny412-SS" H 3621 3905 50  0000 R CNN
F 2 "Package_SO:SOIC-8_3.9x4.9mm_P1.27mm" H 4150 3950 50  0001 C CIN
F 3 "http://ww1.microchip.com/downloads/en/DeviceDoc/40001911A.pdf" H 4150 3950 50  0001 C CNN
	1    4150 3950
	1    0    0    -1  
$EndComp
$Comp
L Device:LED D1
U 1 1 5E80D4CD
P 4450 2850
F 0 "D1" H 4443 2595 50  0000 C CNN
F 1 "PWR_LED" H 4443 2686 50  0000 C CNN
F 2 "LED_SMD:LED_1206_3216Metric_Pad1.42x1.75mm_HandSolder" H 4450 2850 50  0001 C CNN
F 3 "~" H 4450 2850 50  0001 C CNN
	1    4450 2850
	-1   0    0    1   
$EndComp
Wire Wire Line
	2150 3100 4150 3100
Wire Wire Line
	4150 3100 4150 3350
Connection ~ 2150 3100
Wire Wire Line
	2150 3100 2150 3850
$Comp
L pspice:CAP 1uF1
U 1 1 5E817294
P 2150 4100
F 0 "1uF1" H 2328 4146 50  0000 L CNN
F 1 "CAP" H 2328 4055 50  0000 L CNN
F 2 "Capacitor_SMD:C_1206_3216Metric_Pad1.42x1.75mm_HandSolder" H 2150 4100 50  0001 C CNN
F 3 "~" H 2150 4100 50  0001 C CNN
	1    2150 4100
	1    0    0    -1  
$EndComp
Wire Wire Line
	4150 5100 4150 4550
Wire Wire Line
	4750 3750 5000 3750
Wire Wire Line
	4750 3850 5000 3850
Wire Wire Line
	4750 4050 5000 4050
Wire Wire Line
	4750 4150 5000 4150
Text Label 5000 3950 2    50   ~ 0
SCK
Wire Wire Line
	4300 2850 3600 2850
Text Label 3600 2850 0    50   ~ 0
+3.3V
Wire Wire Line
	4750 3950 5000 3950
Text Label 5250 4900 0    50   ~ 0
UPDI
Text Label 5250 4800 0    50   ~ 0
GND
Text Label 5000 3750 2    50   ~ 0
SDI
Text Label 5000 3850 2    50   ~ 0
SDO
Text Label 5600 4050 2    50   ~ 0
TX
Text Label 5600 4150 2    50   ~ 0
RX
Wire Wire Line
	2150 2250 2150 3100
Text Label 2150 6250 0    50   ~ 0
GND
Text Label 2150 2250 0    50   ~ 0
+3.3V
Wire Wire Line
	5350 3650 5350 3400
Text Label 6000 3250 0    50   ~ 0
UPDI
$Comp
L Connector:Conn_01x02_Male J2
U 1 1 5E80F61E
P 5900 4900
F 0 "J2" H 5872 4782 50  0000 R CNN
F 1 "Conn_01x02_Male" H 5872 4873 50  0000 R CNN
F 2 "KiCad:PinHeader_1x02_P2.54mm_SMD_Horizontal" H 5900 4900 50  0001 C CNN
F 3 "~" H 5900 4900 50  0001 C CNN
	1    5900 4900
	-1   0    0    1   
$EndComp
Wire Wire Line
	5700 4900 5250 4900
Wire Wire Line
	5700 4800 5250 4800
Wire Wire Line
	4600 2850 5000 2850
$Comp
L Device:R R1
U 1 1 5E8BD331
P 5150 2850
F 0 "R1" V 4943 2850 50  0000 C CNN
F 1 "100" V 5034 2850 50  0000 C CNN
F 2 "Resistor_SMD:R_1206_3216Metric_Pad1.42x1.75mm_HandSolder" V 5080 2850 50  0001 C CNN
F 3 "~" H 5150 2850 50  0001 C CNN
	1    5150 2850
	0    1    1    0   
$EndComp
Wire Wire Line
	5300 2850 5750 2850
Text Label 5750 2850 2    50   ~ 0
GND
Text Label 6050 4050 0    50   ~ 0
TX
NoConn ~ 6050 3850
NoConn ~ 6050 4250
$Comp
L DPS310XTSA1-0:DPS310XTSA1 U2
U 1 1 5E8FE7FD
P 8700 5100
F 0 "U2" H 8700 5767 50  0000 C CNN
F 1 "DPS310XTSA1" H 8700 5676 50  0000 C CNN
F 2 "DPS310XTSA1:XDCR_DPS310XTSA1" H 8700 5100 50  0001 L BNN
F 3 "Supply voltage range 1.7V to 3.6V | Operation range 300hPa 1200hPa | Sensors precision 0.005hPa | Relative accuracy 0.06hPa | Pressure temperature sensitivity of 0.5Pa/K | Temperature accuracy 0.5C" H 8700 5100 50  0001 L BNN
F 4 "Unavailable" H 8700 5100 50  0001 L BNN "Field4"
F 5 "DPS310XTSA1" H 8700 5100 50  0001 L BNN "Field5"
F 6 "None" H 8700 5100 50  0001 L BNN "Field6"
F 7 "Infineon" H 8700 5100 50  0001 L BNN "Field7"
F 8 "LGA-8 Infineon" H 8700 5100 50  0001 L BNN "Field8"
	1    8700 5100
	1    0    0    -1  
$EndComp
Wire Wire Line
	8100 5000 7400 5000
Wire Wire Line
	7400 5000 7400 4600
Wire Wire Line
	8100 5100 7400 5100
Wire Wire Line
	8100 5200 7400 5200
Wire Wire Line
	9300 4800 9500 4800
Wire Wire Line
	9500 4800 9500 5050
Connection ~ 9500 4800
Wire Wire Line
	9500 4800 9800 4800
$Comp
L Device:C C2
U 1 1 5E91173A
P 9650 5050
F 0 "C2" V 9398 5050 50  0000 C CNN
F 1 "100nF" V 9489 5050 50  0000 C CNN
F 2 "Capacitor_SMD:C_1206_3216Metric_Pad1.42x1.75mm_HandSolder" H 9688 4900 50  0001 C CNN
F 3 "~" H 9650 5050 50  0001 C CNN
	1    9650 5050
	0    1    1    0   
$EndComp
Wire Wire Line
	9800 5050 10450 5050
Wire Wire Line
	10450 5050 10450 4550
$Comp
L Device:R PULL_DOWN1
U 1 1 5E9136C6
P 7400 4450
F 0 "PULL_DOWN1" H 7470 4496 50  0000 L CNN
F 1 "10k" H 7470 4405 50  0000 L CNN
F 2 "Resistor_SMD:R_1206_3216Metric_Pad1.42x1.75mm_HandSolder" V 7330 4450 50  0001 C CNN
F 3 "~" H 7400 4450 50  0001 C CNN
	1    7400 4450
	1    0    0    -1  
$EndComp
Wire Wire Line
	7400 4300 7400 3850
Text Label 7400 3850 0    50   ~ 0
GND
Text Label 7400 5200 0    50   ~ 0
SDI
Text Label 9800 4700 2    50   ~ 0
+3.3V
Text Label 9800 4800 2    50   ~ 0
+3.3V
Text Label 10450 4550 0    50   ~ 0
GND
Wire Wire Line
	9300 5500 9950 5500
Wire Wire Line
	9300 5600 9950 5600
Text Label 9950 5600 2    50   ~ 0
GND
Text Label 9950 5500 2    50   ~ 0
GND
Wire Wire Line
	4750 3650 5350 3650
Wire Wire Line
	9300 4700 9500 4700
Wire Wire Line
	9500 4600 9500 4700
Connection ~ 9500 4700
Wire Wire Line
	9500 4700 9800 4700
Wire Wire Line
	2150 5100 2150 6250
Wire Wire Line
	2150 4350 2150 5100
Connection ~ 2150 5100
Wire Wire Line
	2150 5100 4150 5100
$Comp
L Device:R R3
U 1 1 5E92E4AC
P 5500 3400
F 0 "R3" V 5293 3400 50  0000 C CNN
F 1 "0" V 5384 3400 50  0000 C CNN
F 2 "Resistor_SMD:R_1206_3216Metric_Pad1.42x1.75mm_HandSolder" V 5430 3400 50  0001 C CNN
F 3 "~" H 5500 3400 50  0001 C CNN
	1    5500 3400
	0    1    1    0   
$EndComp
Wire Wire Line
	5650 3400 6000 3400
Wire Wire Line
	6000 3400 6000 3250
$Comp
L Device:C C1
U 1 1 5E9100D6
P 9500 4450
F 0 "C1" H 9615 4496 50  0000 L CNN
F 1 "100nF" H 9615 4405 50  0000 L CNN
F 2 "Capacitor_SMD:C_1206_3216Metric_Pad1.42x1.75mm_HandSolder" H 9538 4300 50  0001 C CNN
F 3 "~" H 9500 4450 50  0001 C CNN
	1    9500 4450
	1    0    0    -1  
$EndComp
Wire Wire Line
	9500 4300 9500 3900
Text Label 9500 3900 0    50   ~ 0
GND
Wire Wire Line
	7400 5600 7050 5600
$Comp
L Device:R R2
U 1 1 5E940459
P 7400 5450
F 0 "R2" H 7470 5496 50  0000 L CNN
F 1 "0" H 7470 5405 50  0000 L CNN
F 2 "Resistor_SMD:R_1206_3216Metric_Pad1.42x1.75mm_HandSolder" V 7330 5450 50  0001 C CNN
F 3 "~" H 7400 5450 50  0001 C CNN
	1    7400 5450
	1    0    0    -1  
$EndComp
Text Label 7050 5600 0    50   ~ 0
SDO
Wire Wire Line
	8100 5300 7400 5300
Wire Wire Line
	6350 4350 6050 4350
Connection ~ 6350 4350
$Comp
L power:PWR_FLAG #FLG0102
U 1 1 5E8D2F1F
P 6350 4350
F 0 "#FLG0102" H 6350 4425 50  0001 C CNN
F 1 "PWR_FLAG" H 6350 4523 50  0000 C CNN
F 2 "" H 6350 4350 50  0001 C CNN
F 3 "~" H 6350 4350 50  0001 C CNN
	1    6350 4350
	-1   0    0    1   
$EndComp
Wire Wire Line
	6350 4150 6050 4150
Connection ~ 6350 4150
$Comp
L power:PWR_FLAG #FLG0101
U 1 1 5E8D2B8D
P 6350 4150
F 0 "#FLG0101" H 6350 4225 50  0001 C CNN
F 1 "PWR_FLAG" H 6350 4323 50  0000 C CNN
F 2 "" H 6350 4150 50  0001 C CNN
F 3 "~" H 6350 4150 50  0001 C CNN
	1    6350 4150
	1    0    0    -1  
$EndComp
Text Label 6050 3950 0    50   ~ 0
RX
Text Label 6050 4150 0    50   ~ 0
+3.3V
Text Label 6050 4350 0    50   ~ 0
GND
Wire Wire Line
	6500 4350 6350 4350
Wire Wire Line
	6500 4250 6050 4250
Wire Wire Line
	6500 4150 6350 4150
Wire Wire Line
	6500 4050 6050 4050
Wire Wire Line
	6500 3950 6050 3950
Wire Wire Line
	6500 3850 6050 3850
$Comp
L Connector:Conn_01x06_Male J1
U 1 1 5E8CA92F
P 6700 4150
F 0 "J1" H 6672 4032 50  0000 R CNN
F 1 "Conn_01x06_Male" H 6672 4123 50  0000 R CNN
F 2 "KiCad:PinHeader_1x06_P2.54mm_SMD_Horizontal" H 6700 4150 50  0001 C CNN
F 3 "~" H 6700 4150 50  0001 C CNN
	1    6700 4150
	-1   0    0    1   
$EndComp
$Comp
L Device:R R4
U 1 1 5E94BDF2
P 5150 4050
F 0 "R4" V 4943 4050 50  0000 C CNN
F 1 "0" V 5034 4050 50  0000 C CNN
F 2 "Resistor_SMD:R_1206_3216Metric_Pad1.42x1.75mm_HandSolder" V 5080 4050 50  0001 C CNN
F 3 "~" H 5150 4050 50  0001 C CNN
	1    5150 4050
	0    1    1    0   
$EndComp
$Comp
L Device:R R5
U 1 1 5E94C2F4
P 5150 4150
F 0 "R5" V 4943 4150 50  0000 C CNN
F 1 "0" V 5034 4150 50  0000 C CNN
F 2 "Resistor_SMD:R_1206_3216Metric_Pad1.42x1.75mm_HandSolder" V 5080 4150 50  0001 C CNN
F 3 "~" H 5150 4150 50  0001 C CNN
	1    5150 4150
	0    1    1    0   
$EndComp
Wire Wire Line
	5300 4050 5600 4050
Wire Wire Line
	5300 4150 5600 4150
$Comp
L Device:R R6
U 1 1 5E963BC7
P 7250 5100
F 0 "R6" V 7043 5100 50  0000 C CNN
F 1 "0" V 7134 5100 50  0000 C CNN
F 2 "Resistor_SMD:R_1206_3216Metric_Pad1.42x1.75mm_HandSolder" V 7180 5100 50  0001 C CNN
F 3 "~" H 7250 5100 50  0001 C CNN
	1    7250 5100
	0    1    1    0   
$EndComp
Wire Wire Line
	7100 5100 6850 5100
Text Label 6850 5100 0    50   ~ 0
SCK
$EndSCHEMATC
