EESchema Schematic File Version 4
EELAYER 30 0
EELAYER END
$Descr A4 11693 8268
encoding utf-8
Sheet 1 1
Title ""
Date ""
Rev ""
Comp ""
Comment1 ""
Comment2 ""
Comment3 ""
Comment4 ""
$EndDescr
Wire Wire Line
	2850 2900 4950 2900
Wire Wire Line
	2850 3850 2850 2900
$Comp
L Device:C 1uF1
U 1 1 5E639792
P 2850 4000
F 0 "1uF1" H 2965 4046 50  0000 L CNN
F 1 "C" H 2965 3955 50  0000 L CNN
F 2 "Capacitor_SMD:C_1206_3216Metric_Pad1.42x1.75mm_HandSolder" H 2888 3850 50  0001 C CNN
F 3 "~" H 2850 4000 50  0001 C CNN
	1    2850 4000
	1    0    0    -1  
$EndComp
$Comp
L power:VCC #PWR01
U 1 1 5E63BC82
P 2850 1600
F 0 "#PWR01" H 2850 1450 50  0001 C CNN
F 1 "VCC" H 2867 1773 50  0000 C CNN
F 2 "" H 2850 1600 50  0001 C CNN
F 3 "" H 2850 1600 50  0001 C CNN
	1    2850 1600
	1    0    0    -1  
$EndComp
$Comp
L power:GND #PWR02
U 1 1 5E63BFC1
P 2850 6000
F 0 "#PWR02" H 2850 5750 50  0001 C CNN
F 1 "GND" H 2855 5827 50  0000 C CNN
F 2 "" H 2850 6000 50  0001 C CNN
F 3 "" H 2850 6000 50  0001 C CNN
	1    2850 6000
	1    0    0    -1  
$EndComp
Wire Wire Line
	2850 2900 2850 2100
Connection ~ 2850 2900
Wire Wire Line
	2850 4150 2850 4600
Wire Wire Line
	4950 4600 2850 4600
Connection ~ 2850 4600
Wire Wire Line
	2850 4600 2850 5500
$Comp
L power:PWR_FLAG #FLG01
U 1 1 5E63C57C
P 2850 2100
F 0 "#FLG01" H 2850 2175 50  0001 C CNN
F 1 "PWR_FLAG" V 2850 2228 50  0000 L CNN
F 2 "" H 2850 2100 50  0001 C CNN
F 3 "~" H 2850 2100 50  0001 C CNN
	1    2850 2100
	0    1    1    0   
$EndComp
Connection ~ 2850 2100
Wire Wire Line
	2850 2100 2850 1600
$Comp
L power:PWR_FLAG #FLG02
U 1 1 5E63C8FA
P 2850 5500
F 0 "#FLG02" H 2850 5575 50  0001 C CNN
F 1 "PWR_FLAG" V 2850 5628 50  0000 L CNN
F 2 "" H 2850 5500 50  0001 C CNN
F 3 "~" H 2850 5500 50  0001 C CNN
	1    2850 5500
	0    1    1    0   
$EndComp
Connection ~ 2850 5500
Wire Wire Line
	2850 5500 2850 6000
$Comp
L Connector:Conn_01x06_Male J1
U 1 1 5E63E193
P 6750 3950
F 0 "J1" H 6722 3832 50  0000 R CNN
F 1 "Conn_01x06_Male" H 6722 3923 50  0000 R CNN
F 2 "test1:PinHeader_1x06_P2.54mm_Horizontal" H 6750 3950 50  0001 C CNN
F 3 "~" H 6750 3950 50  0001 C CNN
	1    6750 3950
	-1   0    0    1   
$EndComp
NoConn ~ 6550 3750
NoConn ~ 6550 4150
Wire Wire Line
	6550 3850 6200 3850
Wire Wire Line
	6550 3950 6200 3950
Wire Wire Line
	6550 4050 6200 4050
Text Label 6200 3950 0    50   ~ 0
TX
Text Label 6200 3650 0    50   ~ 0
GND
Text Label 6200 4050 0    50   ~ 0
RX
Text Label 6200 3850 0    50   ~ 0
VCC
Wire Wire Line
	6550 3650 6200 3650
Text Label 5800 3900 2    50   ~ 0
TX
Text Label 5800 3800 2    50   ~ 0
RX
$Comp
L Connector:Conn_01x02_Male J2
U 1 1 5E640F73
P 6800 4700
F 0 "J2" H 6772 4582 50  0000 R CNN
F 1 "Conn_01x02_Male" H 6772 4673 50  0000 R CNN
F 2 "test1:PinHeader_1x02_P2.54mm_Horizontal" H 6800 4700 50  0001 C CNN
F 3 "~" H 6800 4700 50  0001 C CNN
	1    6800 4700
	-1   0    0    1   
$EndComp
Wire Wire Line
	6600 4600 6200 4600
Wire Wire Line
	6600 4700 6200 4700
Text Label 6200 4600 0    50   ~ 0
UPDI
Text Label 6200 4700 0    50   ~ 0
GND
Text Label 5800 3700 2    50   ~ 0
UPDI
$Comp
L Device:LED D2
U 1 1 5E6433CC
P 5850 2600
F 0 "D2" H 5843 2345 50  0000 C CNN
F 1 "LED_BLUE" H 5843 2436 50  0000 C CNN
F 2 "LED_SMD:LED_1206_3216Metric_Pad1.42x1.75mm_HandSolder" H 5850 2600 50  0001 C CNN
F 3 "~" H 5850 2600 50  0001 C CNN
	1    5850 2600
	-1   0    0    1   
$EndComp
$Comp
L Device:R R2
U 1 1 5E6436E4
P 6350 2600
F 0 "R2" V 6143 2600 50  0000 C CNN
F 1 "499" V 6234 2600 50  0000 C CNN
F 2 "Resistor_SMD:R_1206_3216Metric_Pad1.42x1.75mm_HandSolder" V 6280 2600 50  0001 C CNN
F 3 "~" H 6350 2600 50  0001 C CNN
	1    6350 2600
	0    1    1    0   
$EndComp
Wire Wire Line
	6000 2600 6200 2600
Wire Wire Line
	5700 2600 5250 2600
Text Label 5250 2600 0    50   ~ 0
LED
Wire Wire Line
	6500 2600 7000 2600
Text Label 7000 2600 2    50   ~ 0
GND
Text Label 5800 4000 2    50   ~ 0
LED
$Comp
L Switch:SW_Push SW1
U 1 1 5E644C76
P 5800 5300
F 0 "SW1" H 5800 5585 50  0000 C CNN
F 1 "SW_Push" H 5800 5494 50  0000 C CNN
F 2 "test1:TACTILE_SWITCH_SW_SPST_B3S-1000" H 5800 5500 50  0001 C CNN
F 3 "~" H 5800 5500 50  0001 C CNN
	1    5800 5300
	1    0    0    -1  
$EndComp
Wire Wire Line
	6000 5300 6850 5300
Text Label 5800 4100 2    50   ~ 0
BUTTON
Text Label 6850 5300 2    50   ~ 0
BUTTON
$Comp
L Device:LED D1
U 1 1 5E6480DC
P 5800 1600
F 0 "D1" H 5793 1345 50  0000 C CNN
F 1 "PWR_LED" H 5793 1436 50  0000 C CNN
F 2 "LED_SMD:LED_1206_3216Metric_Pad1.42x1.75mm_HandSolder" H 5800 1600 50  0001 C CNN
F 3 "~" H 5800 1600 50  0001 C CNN
	1    5800 1600
	-1   0    0    1   
$EndComp
Wire Wire Line
	5650 1600 5200 1600
Text Label 5200 1600 0    50   ~ 0
VCC
$Comp
L Device:R R4
U 1 1 5E6BC53F
P 6450 3200
F 0 "R4" V 6243 3200 50  0000 C CNN
F 1 "499" V 6334 3200 50  0000 C CNN
F 2 "Resistor_SMD:R_1206_3216Metric_Pad1.42x1.75mm_HandSolder" V 6380 3200 50  0001 C CNN
F 3 "~" H 6450 3200 50  0001 C CNN
	1    6450 3200
	0    1    1    0   
$EndComp
Wire Wire Line
	6100 3200 6300 3200
Wire Wire Line
	5800 3200 5350 3200
Text Label 5350 3200 0    50   ~ 0
LED2
Wire Wire Line
	6600 3200 7100 3200
Text Label 7100 3200 2    50   ~ 0
GND
Wire Wire Line
	5550 4100 5800 4100
Wire Wire Line
	5550 4000 5800 4000
Wire Wire Line
	5550 3900 5800 3900
Wire Wire Line
	5550 3800 5800 3800
Wire Wire Line
	5550 3700 5800 3700
Wire Wire Line
	4950 2900 4950 3400
$Comp
L MCU_Microchip_ATtiny:ATtiny412-SS U1
U 1 1 5E638A90
P 4950 4000
F 0 "U1" H 4421 4046 50  0000 R CNN
F 1 "ATtiny412-SS" H 4421 3955 50  0000 R CNN
F 2 "Package_SO:SOIC-8_3.9x4.9mm_P1.27mm" H 4950 4000 50  0001 C CIN
F 3 "http://ww1.microchip.com/downloads/en/DeviceDoc/40001911A.pdf" H 4950 4000 50  0001 C CNN
	1    4950 4000
	1    0    0    -1  
$EndComp
$Comp
L Device:LED D3
U 1 1 5E6BC539
P 5950 3200
F 0 "D3" H 5943 2945 50  0000 C CNN
F 1 "LED_RED" H 5943 3036 50  0000 C CNN
F 2 "LED_SMD:LED_1206_3216Metric_Pad1.42x1.75mm_HandSolder" H 5950 3200 50  0001 C CNN
F 3 "~" H 5950 3200 50  0001 C CNN
	1    5950 3200
	-1   0    0    1   
$EndComp
Wire Wire Line
	5550 4200 5800 4200
Text Label 5800 4200 2    50   ~ 0
LED2
$Comp
L Device:R R3
U 1 1 5E6C14CD
P 4200 5300
F 0 "R3" V 3993 5300 50  0000 C CNN
F 1 "10k" V 4084 5300 50  0000 C CNN
F 2 "Resistor_SMD:R_1206_3216Metric_Pad1.42x1.75mm_HandSolder" V 4130 5300 50  0001 C CNN
F 3 "~" H 4200 5300 50  0001 C CNN
	1    4200 5300
	0    1    1    0   
$EndComp
Wire Wire Line
	4050 5300 3500 5300
Wire Wire Line
	4350 5300 5600 5300
Text Label 3500 5300 0    50   ~ 0
VCC
Text Label 6950 1600 2    50   ~ 0
GND
Wire Wire Line
	6450 1600 6950 1600
Wire Wire Line
	5950 1600 6150 1600
$Comp
L Device:R R1
U 1 1 5E6480E2
P 6300 1600
F 0 "R1" V 6093 1600 50  0000 C CNN
F 1 "499" V 6184 1600 50  0000 C CNN
F 2 "Resistor_SMD:R_1206_3216Metric_Pad1.42x1.75mm_HandSolder" V 6230 1600 50  0001 C CNN
F 3 "~" H 6300 1600 50  0001 C CNN
	1    6300 1600
	0    1    1    0   
$EndComp
$EndSCHEMATC
