(kicad_pcb (version 20171130) (host pcbnew "(5.1.5)-3")

  (general
    (thickness 1.6)
    (drawings 9)
    (tracks 90)
    (zones 0)
    (modules 12)
    (nets 15)
  )

  (page A4)
  (layers
    (0 F.Cu signal)
    (31 B.Cu signal)
    (32 B.Adhes user)
    (33 F.Adhes user)
    (34 B.Paste user)
    (35 F.Paste user)
    (36 B.SilkS user)
    (37 F.SilkS user)
    (38 B.Mask user)
    (39 F.Mask user)
    (40 Dwgs.User user)
    (41 Cmts.User user)
    (42 Eco1.User user)
    (43 Eco2.User user)
    (44 Edge.Cuts user)
    (45 Margin user)
    (46 B.CrtYd user)
    (47 F.CrtYd user)
    (48 B.Fab user)
    (49 F.Fab user)
  )

  (setup
    (last_trace_width 0.4)
    (trace_clearance 0.4)
    (zone_clearance 0.508)
    (zone_45_only no)
    (trace_min 0.2)
    (via_size 1.6)
    (via_drill 0.8)
    (via_min_size 0.4)
    (via_min_drill 0.3)
    (uvia_size 0.3)
    (uvia_drill 0.1)
    (uvias_allowed no)
    (uvia_min_size 0.2)
    (uvia_min_drill 0.1)
    (edge_width 0.05)
    (segment_width 0.2)
    (pcb_text_width 0.3)
    (pcb_text_size 1.5 1.5)
    (mod_edge_width 0.12)
    (mod_text_size 1 1)
    (mod_text_width 0.15)
    (pad_size 1.524 1.524)
    (pad_drill 0.762)
    (pad_to_mask_clearance 0.051)
    (solder_mask_min_width 0.25)
    (aux_axis_origin 0 0)
    (visible_elements FFFFFF7F)
    (pcbplotparams
      (layerselection 0x010fc_ffffffff)
      (usegerberextensions false)
      (usegerberattributes false)
      (usegerberadvancedattributes false)
      (creategerberjobfile false)
      (excludeedgelayer true)
      (linewidth 0.100000)
      (plotframeref false)
      (viasonmask false)
      (mode 1)
      (useauxorigin false)
      (hpglpennumber 1)
      (hpglpenspeed 20)
      (hpglpendiameter 15.000000)
      (psnegative false)
      (psa4output false)
      (plotreference true)
      (plotvalue true)
      (plotinvisibletext false)
      (padsonsilk false)
      (subtractmaskfromsilk false)
      (outputformat 1)
      (mirror false)
      (drillshape 1)
      (scaleselection 1)
      (outputdirectory ""))
  )

  (net 0 "")
  (net 1 VCC)
  (net 2 GND)
  (net 3 "Net-(D1-Pad1)")
  (net 4 "Net-(D2-Pad1)")
  (net 5 /LED)
  (net 6 "Net-(D3-Pad1)")
  (net 7 /LED2)
  (net 8 "Net-(J1-Pad5)")
  (net 9 /TX)
  (net 10 "Net-(J1-Pad1)")
  (net 11 /RX)
  (net 12 /UPDI)
  (net 13 "Net-(R3-Pad1)")
  (net 14 /BUTTON)

  (net_class Default "This is the default net class."
    (clearance 0.4)
    (trace_width 0.4)
    (via_dia 1.6)
    (via_drill 0.8)
    (uvia_dia 0.3)
    (uvia_drill 0.1)
    (add_net /BUTTON)
    (add_net /LED)
    (add_net /LED2)
    (add_net /RX)
    (add_net /TX)
    (add_net /UPDI)
    (add_net GND)
    (add_net "Net-(D1-Pad1)")
    (add_net "Net-(D2-Pad1)")
    (add_net "Net-(D3-Pad1)")
    (add_net "Net-(J1-Pad1)")
    (add_net "Net-(J1-Pad5)")
    (add_net "Net-(R3-Pad1)")
    (add_net VCC)
  )

  (net_class Power ""
    (clearance 0.4)
    (trace_width 0.6)
    (via_dia 1.6)
    (via_drill 0.8)
    (uvia_dia 0.3)
    (uvia_drill 0.1)
  )

  (module Capacitor_SMD:C_1206_3216Metric_Pad1.42x1.75mm_HandSolder (layer F.Cu) (tedit 5B301BBE) (tstamp 5E6BD9EE)
    (at 170.18 63.5)
    (descr "Capacitor SMD 1206 (3216 Metric), square (rectangular) end terminal, IPC_7351 nominal with elongated pad for handsoldering. (Body size source: http://www.tortai-tech.com/upload/download/2011102023233369053.pdf), generated with kicad-footprint-generator")
    (tags "capacitor handsolder")
    (path /5E639792)
    (attr smd)
    (fp_text reference 1uF1 (at 0 -1.82) (layer F.SilkS)
      (effects (font (size 1 1) (thickness 0.15)))
    )
    (fp_text value C (at 0 1.82) (layer F.Fab)
      (effects (font (size 1 1) (thickness 0.15)))
    )
    (fp_text user %R (at 0 0) (layer F.Fab)
      (effects (font (size 0.8 0.8) (thickness 0.12)))
    )
    (fp_line (start 2.45 1.12) (end -2.45 1.12) (layer F.CrtYd) (width 0.05))
    (fp_line (start 2.45 -1.12) (end 2.45 1.12) (layer F.CrtYd) (width 0.05))
    (fp_line (start -2.45 -1.12) (end 2.45 -1.12) (layer F.CrtYd) (width 0.05))
    (fp_line (start -2.45 1.12) (end -2.45 -1.12) (layer F.CrtYd) (width 0.05))
    (fp_line (start -0.602064 0.91) (end 0.602064 0.91) (layer F.SilkS) (width 0.12))
    (fp_line (start -0.602064 -0.91) (end 0.602064 -0.91) (layer F.SilkS) (width 0.12))
    (fp_line (start 1.6 0.8) (end -1.6 0.8) (layer F.Fab) (width 0.1))
    (fp_line (start 1.6 -0.8) (end 1.6 0.8) (layer F.Fab) (width 0.1))
    (fp_line (start -1.6 -0.8) (end 1.6 -0.8) (layer F.Fab) (width 0.1))
    (fp_line (start -1.6 0.8) (end -1.6 -0.8) (layer F.Fab) (width 0.1))
    (pad 2 smd roundrect (at 1.4875 0) (size 1.425 1.75) (layers F.Cu F.Paste F.Mask) (roundrect_rratio 0.175439)
      (net 2 GND))
    (pad 1 smd roundrect (at -1.4875 0) (size 1.425 1.75) (layers F.Cu F.Paste F.Mask) (roundrect_rratio 0.175439)
      (net 1 VCC))
    (model ${KISYS3DMOD}/Capacitor_SMD.3dshapes/C_1206_3216Metric.wrl
      (at (xyz 0 0 0))
      (scale (xyz 1 1 1))
      (rotate (xyz 0 0 0))
    )
  )

  (module LED_SMD:LED_1206_3216Metric_Pad1.42x1.75mm_HandSolder (layer F.Cu) (tedit 5B4B45C9) (tstamp 5E6BDA01)
    (at 180.1225 57.15)
    (descr "LED SMD 1206 (3216 Metric), square (rectangular) end terminal, IPC_7351 nominal, (Body size source: http://www.tortai-tech.com/upload/download/2011102023233369053.pdf), generated with kicad-footprint-generator")
    (tags "LED handsolder")
    (path /5E6480DC)
    (attr smd)
    (fp_text reference D1 (at 0 -1.82) (layer F.SilkS)
      (effects (font (size 1 1) (thickness 0.15)))
    )
    (fp_text value PWR_LED (at 0 1.82) (layer F.Fab)
      (effects (font (size 1 1) (thickness 0.15)))
    )
    (fp_text user %R (at 0 0) (layer F.Fab)
      (effects (font (size 0.8 0.8) (thickness 0.12)))
    )
    (fp_line (start 2.45 1.12) (end -2.45 1.12) (layer F.CrtYd) (width 0.05))
    (fp_line (start 2.45 -1.12) (end 2.45 1.12) (layer F.CrtYd) (width 0.05))
    (fp_line (start -2.45 -1.12) (end 2.45 -1.12) (layer F.CrtYd) (width 0.05))
    (fp_line (start -2.45 1.12) (end -2.45 -1.12) (layer F.CrtYd) (width 0.05))
    (fp_line (start -2.46 1.135) (end 1.6 1.135) (layer F.SilkS) (width 0.12))
    (fp_line (start -2.46 -1.135) (end -2.46 1.135) (layer F.SilkS) (width 0.12))
    (fp_line (start 1.6 -1.135) (end -2.46 -1.135) (layer F.SilkS) (width 0.12))
    (fp_line (start 1.6 0.8) (end 1.6 -0.8) (layer F.Fab) (width 0.1))
    (fp_line (start -1.6 0.8) (end 1.6 0.8) (layer F.Fab) (width 0.1))
    (fp_line (start -1.6 -0.4) (end -1.6 0.8) (layer F.Fab) (width 0.1))
    (fp_line (start -1.2 -0.8) (end -1.6 -0.4) (layer F.Fab) (width 0.1))
    (fp_line (start 1.6 -0.8) (end -1.2 -0.8) (layer F.Fab) (width 0.1))
    (pad 2 smd roundrect (at 1.4875 0) (size 1.425 1.75) (layers F.Cu F.Paste F.Mask) (roundrect_rratio 0.175439)
      (net 1 VCC))
    (pad 1 smd roundrect (at -1.4875 0) (size 1.425 1.75) (layers F.Cu F.Paste F.Mask) (roundrect_rratio 0.175439)
      (net 3 "Net-(D1-Pad1)"))
    (model ${KISYS3DMOD}/LED_SMD.3dshapes/LED_1206_3216Metric.wrl
      (at (xyz 0 0 0))
      (scale (xyz 1 1 1))
      (rotate (xyz 0 0 0))
    )
  )

  (module LED_SMD:LED_1206_3216Metric_Pad1.42x1.75mm_HandSolder (layer F.Cu) (tedit 5B4B45C9) (tstamp 5E6BDA14)
    (at 160.02 73.66)
    (descr "LED SMD 1206 (3216 Metric), square (rectangular) end terminal, IPC_7351 nominal, (Body size source: http://www.tortai-tech.com/upload/download/2011102023233369053.pdf), generated with kicad-footprint-generator")
    (tags "LED handsolder")
    (path /5E6433CC)
    (attr smd)
    (fp_text reference D2 (at 0 -1.82) (layer F.SilkS)
      (effects (font (size 1 1) (thickness 0.15)))
    )
    (fp_text value LED_BLUE (at 0 1.82) (layer F.Fab)
      (effects (font (size 1 1) (thickness 0.15)))
    )
    (fp_text user %R (at 0 0) (layer F.Fab)
      (effects (font (size 0.8 0.8) (thickness 0.12)))
    )
    (fp_line (start 2.45 1.12) (end -2.45 1.12) (layer F.CrtYd) (width 0.05))
    (fp_line (start 2.45 -1.12) (end 2.45 1.12) (layer F.CrtYd) (width 0.05))
    (fp_line (start -2.45 -1.12) (end 2.45 -1.12) (layer F.CrtYd) (width 0.05))
    (fp_line (start -2.45 1.12) (end -2.45 -1.12) (layer F.CrtYd) (width 0.05))
    (fp_line (start -2.46 1.135) (end 1.6 1.135) (layer F.SilkS) (width 0.12))
    (fp_line (start -2.46 -1.135) (end -2.46 1.135) (layer F.SilkS) (width 0.12))
    (fp_line (start 1.6 -1.135) (end -2.46 -1.135) (layer F.SilkS) (width 0.12))
    (fp_line (start 1.6 0.8) (end 1.6 -0.8) (layer F.Fab) (width 0.1))
    (fp_line (start -1.6 0.8) (end 1.6 0.8) (layer F.Fab) (width 0.1))
    (fp_line (start -1.6 -0.4) (end -1.6 0.8) (layer F.Fab) (width 0.1))
    (fp_line (start -1.2 -0.8) (end -1.6 -0.4) (layer F.Fab) (width 0.1))
    (fp_line (start 1.6 -0.8) (end -1.2 -0.8) (layer F.Fab) (width 0.1))
    (pad 2 smd roundrect (at 1.4875 0) (size 1.425 1.75) (layers F.Cu F.Paste F.Mask) (roundrect_rratio 0.175439)
      (net 5 /LED))
    (pad 1 smd roundrect (at -1.4875 0) (size 1.425 1.75) (layers F.Cu F.Paste F.Mask) (roundrect_rratio 0.175439)
      (net 4 "Net-(D2-Pad1)"))
    (model ${KISYS3DMOD}/LED_SMD.3dshapes/LED_1206_3216Metric.wrl
      (at (xyz 0 0 0))
      (scale (xyz 1 1 1))
      (rotate (xyz 0 0 0))
    )
  )

  (module LED_SMD:LED_1206_3216Metric_Pad1.42x1.75mm_HandSolder (layer F.Cu) (tedit 5B4B45C9) (tstamp 5E6BDA27)
    (at 160.02 69.85)
    (descr "LED SMD 1206 (3216 Metric), square (rectangular) end terminal, IPC_7351 nominal, (Body size source: http://www.tortai-tech.com/upload/download/2011102023233369053.pdf), generated with kicad-footprint-generator")
    (tags "LED handsolder")
    (path /5E6BC539)
    (attr smd)
    (fp_text reference D3 (at 0 -1.82) (layer F.SilkS)
      (effects (font (size 1 1) (thickness 0.15)))
    )
    (fp_text value LED_RED (at 0 1.82) (layer F.Fab)
      (effects (font (size 1 1) (thickness 0.15)))
    )
    (fp_text user %R (at 0 0) (layer F.Fab)
      (effects (font (size 0.8 0.8) (thickness 0.12)))
    )
    (fp_line (start 2.45 1.12) (end -2.45 1.12) (layer F.CrtYd) (width 0.05))
    (fp_line (start 2.45 -1.12) (end 2.45 1.12) (layer F.CrtYd) (width 0.05))
    (fp_line (start -2.45 -1.12) (end 2.45 -1.12) (layer F.CrtYd) (width 0.05))
    (fp_line (start -2.45 1.12) (end -2.45 -1.12) (layer F.CrtYd) (width 0.05))
    (fp_line (start -2.46 1.135) (end 1.6 1.135) (layer F.SilkS) (width 0.12))
    (fp_line (start -2.46 -1.135) (end -2.46 1.135) (layer F.SilkS) (width 0.12))
    (fp_line (start 1.6 -1.135) (end -2.46 -1.135) (layer F.SilkS) (width 0.12))
    (fp_line (start 1.6 0.8) (end 1.6 -0.8) (layer F.Fab) (width 0.1))
    (fp_line (start -1.6 0.8) (end 1.6 0.8) (layer F.Fab) (width 0.1))
    (fp_line (start -1.6 -0.4) (end -1.6 0.8) (layer F.Fab) (width 0.1))
    (fp_line (start -1.2 -0.8) (end -1.6 -0.4) (layer F.Fab) (width 0.1))
    (fp_line (start 1.6 -0.8) (end -1.2 -0.8) (layer F.Fab) (width 0.1))
    (pad 2 smd roundrect (at 1.4875 0) (size 1.425 1.75) (layers F.Cu F.Paste F.Mask) (roundrect_rratio 0.175439)
      (net 7 /LED2))
    (pad 1 smd roundrect (at -1.4875 0) (size 1.425 1.75) (layers F.Cu F.Paste F.Mask) (roundrect_rratio 0.175439)
      (net 6 "Net-(D3-Pad1)"))
    (model ${KISYS3DMOD}/LED_SMD.3dshapes/LED_1206_3216Metric.wrl
      (at (xyz 0 0 0))
      (scale (xyz 1 1 1))
      (rotate (xyz 0 0 0))
    )
  )

  (module test1:PinHeader_1x06_P2.54mm_Horizontal (layer F.Cu) (tedit 5E6B90BC) (tstamp 5E6BDA45)
    (at 181.61 62.23)
    (descr "Through hole angled pin header, 1x02, 2.54mm pitch, 6mm pin length, single row")
    (tags "Through hole angled pin header THT 1x02 2.54mm single row")
    (path /5E63E193)
    (fp_text reference J1 (at 0 -2.54) (layer F.SilkS)
      (effects (font (size 1 1) (thickness 0.15)))
    )
    (fp_text value Conn_01x06_Male (at 2.54 5.08 90) (layer F.Fab)
      (effects (font (size 1 1) (thickness 0.15)))
    )
    (fp_line (start 3.81 5.08) (end 5.08 5.08) (layer F.SilkS) (width 0.12))
    (fp_line (start 7.62 3.81) (end 7.62 8.89) (layer F.SilkS) (width 0.12))
    (fp_line (start 5.08 3.81) (end 5.08 8.89) (layer F.SilkS) (width 0.12))
    (fp_line (start 2.54 7.62) (end 5.08 7.62) (layer F.SilkS) (width 0.12))
    (fp_line (start 2.54 5.08) (end 3.81 5.08) (layer F.SilkS) (width 0.12))
    (fp_line (start -0.32 9.84) (end -0.32 10.48) (layer F.Fab) (width 0.1))
    (fp_line (start -0.32 12.38) (end -0.32 13.02) (layer F.Fab) (width 0.1))
    (fp_line (start -0.32 4.76) (end -0.32 5.4) (layer F.Fab) (width 0.1))
    (fp_line (start -0.32 7.3) (end -0.32 7.94) (layer F.Fab) (width 0.1))
    (fp_line (start 2.54 2.54) (end 5.08 2.54) (layer F.SilkS) (width 0.12))
    (fp_line (start 3.81 0) (end 5.08 0) (layer F.SilkS) (width 0.12))
    (fp_line (start 2.54 0) (end 3.81 0) (layer F.SilkS) (width 0.12))
    (fp_line (start 7.62 -1.27) (end 7.62 3.81) (layer F.SilkS) (width 0.12))
    (fp_line (start 5.08 -1.27) (end 5.08 3.81) (layer F.SilkS) (width 0.12))
    (fp_line (start -0.32 2.22) (end -0.32 2.86) (layer F.Fab) (width 0.1))
    (fp_line (start -0.32 -0.32) (end -0.32 0.32) (layer F.Fab) (width 0.1))
    (pad 2 smd rect (at 0 10.16) (size 2 1.7) (layers F.Cu F.Paste F.Mask)
      (net 11 /RX))
    (pad 1 smd rect (at 0 12.7) (size 2 1.7) (layers F.Cu F.Paste F.Mask)
      (net 10 "Net-(J1-Pad1)"))
    (pad 4 smd rect (at 0 5.08) (size 2 1.7) (layers F.Cu F.Paste F.Mask)
      (net 1 VCC))
    (pad 3 smd rect (at 0 7.62) (size 2 1.7) (layers F.Cu F.Paste F.Mask)
      (net 9 /TX))
    (pad 5 smd rect (at 0 2.54) (size 2 1.7) (layers F.Cu F.Paste F.Mask)
      (net 8 "Net-(J1-Pad5)"))
    (pad 6 smd rect (at 0 0) (size 2 1.7) (layers F.Cu F.Paste F.Mask)
      (net 2 GND))
    (model ${KISYS3DMOD}/Connector_PinHeader_2.54mm.3dshapes/PinHeader_1x02_P2.54mm_Horizontal.wrl
      (at (xyz 0 0 0))
      (scale (xyz 1 1 1))
      (rotate (xyz 0 0 0))
    )
  )

  (module test1:PinHeader_1x02_P2.54mm_Horizontal (layer F.Cu) (tedit 5E6B9087) (tstamp 5E6BDA54)
    (at 171.45 77.47 270)
    (descr "Through hole angled pin header, 1x02, 2.54mm pitch, 6mm pin length, single row")
    (tags "Through hole angled pin header THT 1x02 2.54mm single row")
    (path /5E640F73)
    (fp_text reference J2 (at 0 -2.54 90) (layer F.SilkS)
      (effects (font (size 1 1) (thickness 0.15)))
    )
    (fp_text value Conn_01x02_Male (at 3.81 3.81 180) (layer F.Fab)
      (effects (font (size 1 1) (thickness 0.15)))
    )
    (fp_line (start 2.54 2.54) (end 5.08 2.54) (layer F.SilkS) (width 0.12))
    (fp_line (start 3.81 0) (end 5.08 0) (layer F.SilkS) (width 0.12))
    (fp_line (start 2.54 0) (end 3.81 0) (layer F.SilkS) (width 0.12))
    (fp_line (start 7.62 -1.27) (end 7.62 3.81) (layer F.SilkS) (width 0.12))
    (fp_line (start 5.08 -1.27) (end 5.08 3.81) (layer F.SilkS) (width 0.12))
    (fp_line (start -0.32 2.22) (end -0.32 2.86) (layer F.Fab) (width 0.1))
    (fp_line (start -0.32 -0.32) (end -0.32 0.32) (layer F.Fab) (width 0.1))
    (pad 1 smd rect (at 0 2.54 270) (size 2 1.7) (layers F.Cu F.Paste F.Mask)
      (net 2 GND))
    (pad 2 smd rect (at 0 0 270) (size 2 1.7) (layers F.Cu F.Paste F.Mask)
      (net 12 /UPDI))
    (model ${KISYS3DMOD}/Connector_PinHeader_2.54mm.3dshapes/PinHeader_1x02_P2.54mm_Horizontal.wrl
      (at (xyz 0 0 0))
      (scale (xyz 1 1 1))
      (rotate (xyz 0 0 0))
    )
  )

  (module Resistor_SMD:R_1206_3216Metric_Pad1.42x1.75mm_HandSolder (layer F.Cu) (tedit 5B301BBD) (tstamp 5E6BDA65)
    (at 171.2325 57.15)
    (descr "Resistor SMD 1206 (3216 Metric), square (rectangular) end terminal, IPC_7351 nominal with elongated pad for handsoldering. (Body size source: http://www.tortai-tech.com/upload/download/2011102023233369053.pdf), generated with kicad-footprint-generator")
    (tags "resistor handsolder")
    (path /5E6480E2)
    (attr smd)
    (fp_text reference R1 (at 0 -1.82) (layer F.SilkS)
      (effects (font (size 1 1) (thickness 0.15)))
    )
    (fp_text value 499 (at 0 1.82) (layer F.Fab)
      (effects (font (size 1 1) (thickness 0.15)))
    )
    (fp_text user %R (at 0 0) (layer F.Fab)
      (effects (font (size 0.8 0.8) (thickness 0.12)))
    )
    (fp_line (start 2.45 1.12) (end -2.45 1.12) (layer F.CrtYd) (width 0.05))
    (fp_line (start 2.45 -1.12) (end 2.45 1.12) (layer F.CrtYd) (width 0.05))
    (fp_line (start -2.45 -1.12) (end 2.45 -1.12) (layer F.CrtYd) (width 0.05))
    (fp_line (start -2.45 1.12) (end -2.45 -1.12) (layer F.CrtYd) (width 0.05))
    (fp_line (start -0.602064 0.91) (end 0.602064 0.91) (layer F.SilkS) (width 0.12))
    (fp_line (start -0.602064 -0.91) (end 0.602064 -0.91) (layer F.SilkS) (width 0.12))
    (fp_line (start 1.6 0.8) (end -1.6 0.8) (layer F.Fab) (width 0.1))
    (fp_line (start 1.6 -0.8) (end 1.6 0.8) (layer F.Fab) (width 0.1))
    (fp_line (start -1.6 -0.8) (end 1.6 -0.8) (layer F.Fab) (width 0.1))
    (fp_line (start -1.6 0.8) (end -1.6 -0.8) (layer F.Fab) (width 0.1))
    (pad 2 smd roundrect (at 1.4875 0) (size 1.425 1.75) (layers F.Cu F.Paste F.Mask) (roundrect_rratio 0.175439)
      (net 3 "Net-(D1-Pad1)"))
    (pad 1 smd roundrect (at -1.4875 0) (size 1.425 1.75) (layers F.Cu F.Paste F.Mask) (roundrect_rratio 0.175439)
      (net 2 GND))
    (model ${KISYS3DMOD}/Resistor_SMD.3dshapes/R_1206_3216Metric.wrl
      (at (xyz 0 0 0))
      (scale (xyz 1 1 1))
      (rotate (xyz 0 0 0))
    )
  )

  (module Resistor_SMD:R_1206_3216Metric_Pad1.42x1.75mm_HandSolder (layer F.Cu) (tedit 5B301BBD) (tstamp 5E6BDA76)
    (at 159.8025 77.47)
    (descr "Resistor SMD 1206 (3216 Metric), square (rectangular) end terminal, IPC_7351 nominal with elongated pad for handsoldering. (Body size source: http://www.tortai-tech.com/upload/download/2011102023233369053.pdf), generated with kicad-footprint-generator")
    (tags "resistor handsolder")
    (path /5E6436E4)
    (attr smd)
    (fp_text reference R2 (at 0 -1.82) (layer F.SilkS)
      (effects (font (size 1 1) (thickness 0.15)))
    )
    (fp_text value 499 (at 0 1.82) (layer F.Fab)
      (effects (font (size 1 1) (thickness 0.15)))
    )
    (fp_text user %R (at 0 0) (layer F.Fab)
      (effects (font (size 0.8 0.8) (thickness 0.12)))
    )
    (fp_line (start 2.45 1.12) (end -2.45 1.12) (layer F.CrtYd) (width 0.05))
    (fp_line (start 2.45 -1.12) (end 2.45 1.12) (layer F.CrtYd) (width 0.05))
    (fp_line (start -2.45 -1.12) (end 2.45 -1.12) (layer F.CrtYd) (width 0.05))
    (fp_line (start -2.45 1.12) (end -2.45 -1.12) (layer F.CrtYd) (width 0.05))
    (fp_line (start -0.602064 0.91) (end 0.602064 0.91) (layer F.SilkS) (width 0.12))
    (fp_line (start -0.602064 -0.91) (end 0.602064 -0.91) (layer F.SilkS) (width 0.12))
    (fp_line (start 1.6 0.8) (end -1.6 0.8) (layer F.Fab) (width 0.1))
    (fp_line (start 1.6 -0.8) (end 1.6 0.8) (layer F.Fab) (width 0.1))
    (fp_line (start -1.6 -0.8) (end 1.6 -0.8) (layer F.Fab) (width 0.1))
    (fp_line (start -1.6 0.8) (end -1.6 -0.8) (layer F.Fab) (width 0.1))
    (pad 2 smd roundrect (at 1.4875 0) (size 1.425 1.75) (layers F.Cu F.Paste F.Mask) (roundrect_rratio 0.175439)
      (net 4 "Net-(D2-Pad1)"))
    (pad 1 smd roundrect (at -1.4875 0) (size 1.425 1.75) (layers F.Cu F.Paste F.Mask) (roundrect_rratio 0.175439)
      (net 2 GND))
    (model ${KISYS3DMOD}/Resistor_SMD.3dshapes/R_1206_3216Metric.wrl
      (at (xyz 0 0 0))
      (scale (xyz 1 1 1))
      (rotate (xyz 0 0 0))
    )
  )

  (module Resistor_SMD:R_1206_3216Metric_Pad1.42x1.75mm_HandSolder (layer F.Cu) (tedit 5B301BBD) (tstamp 5E6BDA87)
    (at 176.53 63.5 90)
    (descr "Resistor SMD 1206 (3216 Metric), square (rectangular) end terminal, IPC_7351 nominal with elongated pad for handsoldering. (Body size source: http://www.tortai-tech.com/upload/download/2011102023233369053.pdf), generated with kicad-footprint-generator")
    (tags "resistor handsolder")
    (path /5E6C14CD)
    (attr smd)
    (fp_text reference R3 (at 0 -1.82 90) (layer F.SilkS)
      (effects (font (size 1 1) (thickness 0.15)))
    )
    (fp_text value 10k (at 0 1.82 90) (layer F.Fab)
      (effects (font (size 1 1) (thickness 0.15)))
    )
    (fp_text user %R (at 0 0 90) (layer F.Fab)
      (effects (font (size 0.8 0.8) (thickness 0.12)))
    )
    (fp_line (start 2.45 1.12) (end -2.45 1.12) (layer F.CrtYd) (width 0.05))
    (fp_line (start 2.45 -1.12) (end 2.45 1.12) (layer F.CrtYd) (width 0.05))
    (fp_line (start -2.45 -1.12) (end 2.45 -1.12) (layer F.CrtYd) (width 0.05))
    (fp_line (start -2.45 1.12) (end -2.45 -1.12) (layer F.CrtYd) (width 0.05))
    (fp_line (start -0.602064 0.91) (end 0.602064 0.91) (layer F.SilkS) (width 0.12))
    (fp_line (start -0.602064 -0.91) (end 0.602064 -0.91) (layer F.SilkS) (width 0.12))
    (fp_line (start 1.6 0.8) (end -1.6 0.8) (layer F.Fab) (width 0.1))
    (fp_line (start 1.6 -0.8) (end 1.6 0.8) (layer F.Fab) (width 0.1))
    (fp_line (start -1.6 -0.8) (end 1.6 -0.8) (layer F.Fab) (width 0.1))
    (fp_line (start -1.6 0.8) (end -1.6 -0.8) (layer F.Fab) (width 0.1))
    (pad 2 smd roundrect (at 1.4875 0 90) (size 1.425 1.75) (layers F.Cu F.Paste F.Mask) (roundrect_rratio 0.175439)
      (net 1 VCC))
    (pad 1 smd roundrect (at -1.4875 0 90) (size 1.425 1.75) (layers F.Cu F.Paste F.Mask) (roundrect_rratio 0.175439)
      (net 13 "Net-(R3-Pad1)"))
    (model ${KISYS3DMOD}/Resistor_SMD.3dshapes/R_1206_3216Metric.wrl
      (at (xyz 0 0 0))
      (scale (xyz 1 1 1))
      (rotate (xyz 0 0 0))
    )
  )

  (module Resistor_SMD:R_1206_3216Metric_Pad1.42x1.75mm_HandSolder (layer F.Cu) (tedit 5B301BBD) (tstamp 5E6BDA98)
    (at 159.8025 66.04)
    (descr "Resistor SMD 1206 (3216 Metric), square (rectangular) end terminal, IPC_7351 nominal with elongated pad for handsoldering. (Body size source: http://www.tortai-tech.com/upload/download/2011102023233369053.pdf), generated with kicad-footprint-generator")
    (tags "resistor handsolder")
    (path /5E6BC53F)
    (attr smd)
    (fp_text reference R4 (at 0 -1.82) (layer F.SilkS)
      (effects (font (size 1 1) (thickness 0.15)))
    )
    (fp_text value 499 (at 0 1.82) (layer F.Fab)
      (effects (font (size 1 1) (thickness 0.15)))
    )
    (fp_text user %R (at 0 0) (layer F.Fab)
      (effects (font (size 0.8 0.8) (thickness 0.12)))
    )
    (fp_line (start 2.45 1.12) (end -2.45 1.12) (layer F.CrtYd) (width 0.05))
    (fp_line (start 2.45 -1.12) (end 2.45 1.12) (layer F.CrtYd) (width 0.05))
    (fp_line (start -2.45 -1.12) (end 2.45 -1.12) (layer F.CrtYd) (width 0.05))
    (fp_line (start -2.45 1.12) (end -2.45 -1.12) (layer F.CrtYd) (width 0.05))
    (fp_line (start -0.602064 0.91) (end 0.602064 0.91) (layer F.SilkS) (width 0.12))
    (fp_line (start -0.602064 -0.91) (end 0.602064 -0.91) (layer F.SilkS) (width 0.12))
    (fp_line (start 1.6 0.8) (end -1.6 0.8) (layer F.Fab) (width 0.1))
    (fp_line (start 1.6 -0.8) (end 1.6 0.8) (layer F.Fab) (width 0.1))
    (fp_line (start -1.6 -0.8) (end 1.6 -0.8) (layer F.Fab) (width 0.1))
    (fp_line (start -1.6 0.8) (end -1.6 -0.8) (layer F.Fab) (width 0.1))
    (pad 2 smd roundrect (at 1.4875 0) (size 1.425 1.75) (layers F.Cu F.Paste F.Mask) (roundrect_rratio 0.175439)
      (net 6 "Net-(D3-Pad1)"))
    (pad 1 smd roundrect (at -1.4875 0) (size 1.425 1.75) (layers F.Cu F.Paste F.Mask) (roundrect_rratio 0.175439)
      (net 2 GND))
    (model ${KISYS3DMOD}/Resistor_SMD.3dshapes/R_1206_3216Metric.wrl
      (at (xyz 0 0 0))
      (scale (xyz 1 1 1))
      (rotate (xyz 0 0 0))
    )
  )

  (module test1:TACTILE_SWITCH_SW_SPST_B3S-1000 (layer F.Cu) (tedit 5E639800) (tstamp 5E6BDAB2)
    (at 160.02 59.69)
    (descr "Surface Mount Tactile Switch for High-Density Packaging")
    (tags "Tactile Switch")
    (path /5E644C76)
    (attr smd)
    (fp_text reference SW1 (at 0 -4.5) (layer F.SilkS)
      (effects (font (size 1 1) (thickness 0.15)))
    )
    (fp_text value SW_Push (at 0 4.5) (layer F.Fab)
      (effects (font (size 1 1) (thickness 0.15)))
    )
    (fp_line (start -3 3.3) (end -3 -3.3) (layer F.Fab) (width 0.1))
    (fp_line (start 3 3.3) (end -3 3.3) (layer F.Fab) (width 0.1))
    (fp_line (start 3 -3.3) (end 3 3.3) (layer F.Fab) (width 0.1))
    (fp_line (start -3 -3.3) (end 3 -3.3) (layer F.Fab) (width 0.1))
    (fp_circle (center 0 0) (end 1.65 0) (layer F.Fab) (width 0.1))
    (fp_line (start 3.15 -1.3) (end 3.15 1.3) (layer F.SilkS) (width 0.12))
    (fp_line (start -3.15 3.45) (end -3.15 3.2) (layer F.SilkS) (width 0.12))
    (fp_line (start 3.15 3.45) (end -3.15 3.45) (layer F.SilkS) (width 0.12))
    (fp_line (start 3.15 3.2) (end 3.15 3.45) (layer F.SilkS) (width 0.12))
    (fp_line (start -3.15 1.3) (end -3.15 -1.3) (layer F.SilkS) (width 0.12))
    (fp_line (start 3.15 -3.45) (end 3.15 -3.2) (layer F.SilkS) (width 0.12))
    (fp_line (start -3.15 -3.45) (end 3.15 -3.45) (layer F.SilkS) (width 0.12))
    (fp_line (start -3.15 -3.2) (end -3.15 -3.45) (layer F.SilkS) (width 0.12))
    (fp_line (start -5 -3.7) (end -5 3.7) (layer F.CrtYd) (width 0.05))
    (fp_line (start 5 -3.7) (end -5 -3.7) (layer F.CrtYd) (width 0.05))
    (fp_line (start 5 3.7) (end 5 -3.7) (layer F.CrtYd) (width 0.05))
    (fp_line (start -5 3.7) (end 5 3.7) (layer F.CrtYd) (width 0.05))
    (fp_text user %R (at 0 -4.5) (layer F.Fab)
      (effects (font (size 1 1) (thickness 0.15)))
    )
    (pad 2 smd rect (at 3.375 2) (size 2.75 1.5) (layers F.Cu F.Paste F.Mask)
      (net 14 /BUTTON))
    (pad 2 smd rect (at -3.375 2) (size 2.75 1.5) (layers F.Cu F.Paste F.Mask)
      (net 14 /BUTTON))
    (pad 1 smd rect (at 3.375 -2) (size 2.75 1.5) (layers F.Cu F.Paste F.Mask)
      (net 13 "Net-(R3-Pad1)"))
    (pad 1 smd rect (at -3.375 -2) (size 2.75 1.5) (layers F.Cu F.Paste F.Mask)
      (net 13 "Net-(R3-Pad1)"))
    (model ${KISYS3DMOD}/Button_Switch_SMD.3dshapes/SW_SPST_B3S-1000.wrl
      (at (xyz 0 0 0))
      (scale (xyz 1 1 1))
      (rotate (xyz 0 0 0))
    )
  )

  (module Package_SO:SOIC-8_3.9x4.9mm_P1.27mm (layer F.Cu) (tedit 5D9F72B1) (tstamp 5E6BDACC)
    (at 170.18 68.58)
    (descr "SOIC, 8 Pin (JEDEC MS-012AA, https://www.analog.com/media/en/package-pcb-resources/package/pkg_pdf/soic_narrow-r/r_8.pdf), generated with kicad-footprint-generator ipc_gullwing_generator.py")
    (tags "SOIC SO")
    (path /5E638A90)
    (attr smd)
    (fp_text reference U1 (at 0 -3.4) (layer F.SilkS)
      (effects (font (size 1 1) (thickness 0.15)))
    )
    (fp_text value ATtiny412-SS (at 0 3.4) (layer F.Fab)
      (effects (font (size 1 1) (thickness 0.15)))
    )
    (fp_text user %R (at 0 0) (layer F.Fab)
      (effects (font (size 0.98 0.98) (thickness 0.15)))
    )
    (fp_line (start 3.7 -2.7) (end -3.7 -2.7) (layer F.CrtYd) (width 0.05))
    (fp_line (start 3.7 2.7) (end 3.7 -2.7) (layer F.CrtYd) (width 0.05))
    (fp_line (start -3.7 2.7) (end 3.7 2.7) (layer F.CrtYd) (width 0.05))
    (fp_line (start -3.7 -2.7) (end -3.7 2.7) (layer F.CrtYd) (width 0.05))
    (fp_line (start -1.95 -1.475) (end -0.975 -2.45) (layer F.Fab) (width 0.1))
    (fp_line (start -1.95 2.45) (end -1.95 -1.475) (layer F.Fab) (width 0.1))
    (fp_line (start 1.95 2.45) (end -1.95 2.45) (layer F.Fab) (width 0.1))
    (fp_line (start 1.95 -2.45) (end 1.95 2.45) (layer F.Fab) (width 0.1))
    (fp_line (start -0.975 -2.45) (end 1.95 -2.45) (layer F.Fab) (width 0.1))
    (fp_line (start 0 -2.56) (end -3.45 -2.56) (layer F.SilkS) (width 0.12))
    (fp_line (start 0 -2.56) (end 1.95 -2.56) (layer F.SilkS) (width 0.12))
    (fp_line (start 0 2.56) (end -1.95 2.56) (layer F.SilkS) (width 0.12))
    (fp_line (start 0 2.56) (end 1.95 2.56) (layer F.SilkS) (width 0.12))
    (pad 8 smd roundrect (at 2.475 -1.905) (size 1.95 0.6) (layers F.Cu F.Paste F.Mask) (roundrect_rratio 0.25)
      (net 2 GND))
    (pad 7 smd roundrect (at 2.475 -0.635) (size 1.95 0.6) (layers F.Cu F.Paste F.Mask) (roundrect_rratio 0.25)
      (net 5 /LED))
    (pad 6 smd roundrect (at 2.475 0.635) (size 1.95 0.6) (layers F.Cu F.Paste F.Mask) (roundrect_rratio 0.25)
      (net 12 /UPDI))
    (pad 5 smd roundrect (at 2.475 1.905) (size 1.95 0.6) (layers F.Cu F.Paste F.Mask) (roundrect_rratio 0.25)
      (net 9 /TX))
    (pad 4 smd roundrect (at -2.475 1.905) (size 1.95 0.6) (layers F.Cu F.Paste F.Mask) (roundrect_rratio 0.25)
      (net 11 /RX))
    (pad 3 smd roundrect (at -2.475 0.635) (size 1.95 0.6) (layers F.Cu F.Paste F.Mask) (roundrect_rratio 0.25)
      (net 7 /LED2))
    (pad 2 smd roundrect (at -2.475 -0.635) (size 1.95 0.6) (layers F.Cu F.Paste F.Mask) (roundrect_rratio 0.25)
      (net 14 /BUTTON))
    (pad 1 smd roundrect (at -2.475 -1.905) (size 1.95 0.6) (layers F.Cu F.Paste F.Mask) (roundrect_rratio 0.25)
      (net 1 VCC))
    (model ${KISYS3DMOD}/Package_SO.3dshapes/SOIC-8_3.9x4.9mm_P1.27mm.wrl
      (at (xyz 0 0 0))
      (scale (xyz 1 1 1))
      (rotate (xyz 0 0 0))
    )
  )

  (gr_poly (pts (xy 189.23 85.09) (xy 151.13 85.09) (xy 151.13 50.8) (xy 189.23 50.8)) (layer Dwgs.User) (width 0))
  (gr_line (start 149.13 87.63) (end 149.13 49.53) (layer Margin) (width 0.15) (tstamp 5E6BF0AF))
  (gr_line (start 191.23 87.63) (end 149.13 87.63) (layer Margin) (width 0.15))
  (gr_line (start 191.23 49.53) (end 191.23 87.63) (layer Margin) (width 0.15))
  (gr_line (start 149.13 49.53) (end 191.23 49.53) (layer Margin) (width 0.15))
  (gr_line (start 189.23 50.8) (end 189.23 85.09) (layer Edge.Cuts) (width 0.1))
  (gr_line (start 151.13 50.8) (end 189.23 50.8) (layer Edge.Cuts) (width 0.1))
  (gr_line (start 151.13 85.09) (end 151.13 50.8) (layer Edge.Cuts) (width 0.1))
  (gr_line (start 189.23 85.09) (end 151.13 85.09) (layer Edge.Cuts) (width 0.1))

  (segment (start 177.6225 62.0125) (end 177.405 62.0125) (width 0.4) (layer F.Cu) (net 1))
  (segment (start 181.61 58.025) (end 177.6225 62.0125) (width 0.4) (layer F.Cu) (net 1))
  (segment (start 177.405 62.0125) (end 176.53 62.0125) (width 0.4) (layer F.Cu) (net 1))
  (segment (start 181.61 57.15) (end 181.61 58.025) (width 0.4) (layer F.Cu) (net 1))
  (segment (start 167.98 63.5) (end 167.64 63.84) (width 0.4) (layer F.Cu) (net 1))
  (segment (start 168.6925 63.5) (end 167.98 63.5) (width 0.4) (layer F.Cu) (net 1))
  (segment (start 167.705 63.905) (end 167.705 66.675) (width 0.4) (layer F.Cu) (net 1))
  (segment (start 167.64 63.84) (end 167.705 63.905) (width 0.4) (layer F.Cu) (net 1))
  (segment (start 176.53 62.0125) (end 176.53 60.96) (width 0.4) (layer F.Cu) (net 1))
  (segment (start 176.53 60.96) (end 168.91 60.96) (width 0.4) (layer F.Cu) (net 1))
  (segment (start 168.6925 61.1775) (end 168.6925 63.5) (width 0.4) (layer F.Cu) (net 1))
  (segment (start 168.91 60.96) (end 168.6925 61.1775) (width 0.4) (layer F.Cu) (net 1))
  (segment (start 177.405 62.0125) (end 179.07 63.6775) (width 0.4) (layer F.Cu) (net 1))
  (segment (start 179.07 66.17) (end 180.21 67.31) (width 0.4) (layer F.Cu) (net 1))
  (segment (start 180.21 67.31) (end 181.61 67.31) (width 0.4) (layer F.Cu) (net 1))
  (segment (start 179.07 63.6775) (end 179.07 66.17) (width 0.4) (layer F.Cu) (net 1))
  (segment (start 172.38 63.5) (end 172.72 63.84) (width 0.4) (layer F.Cu) (net 2))
  (segment (start 171.6675 63.5) (end 172.38 63.5) (width 0.4) (layer F.Cu) (net 2))
  (segment (start 172.655 63.905) (end 172.655 66.675) (width 0.4) (layer F.Cu) (net 2))
  (segment (start 172.72 63.84) (end 172.655 63.905) (width 0.4) (layer F.Cu) (net 2))
  (via (at 156.21 66.04) (size 1.6) (drill 0.8) (layers F.Cu B.Cu) (net 2))
  (segment (start 158.315 66.04) (end 156.21 66.04) (width 0.4) (layer F.Cu) (net 2))
  (via (at 156.21 77.47) (size 1.6) (drill 0.8) (layers F.Cu B.Cu) (net 2))
  (segment (start 158.315 77.47) (end 156.21 77.47) (width 0.4) (layer F.Cu) (net 2))
  (via (at 166.37 77.47) (size 1.6) (drill 0.8) (layers F.Cu B.Cu) (net 2))
  (segment (start 168.91 77.47) (end 166.37 77.47) (width 0.4) (layer F.Cu) (net 2))
  (via (at 173.99 62.36) (size 1.6) (drill 0.8) (layers F.Cu B.Cu) (net 2))
  (segment (start 171.6675 63.5) (end 172.85 63.5) (width 0.4) (layer F.Cu) (net 2))
  (segment (start 172.85 63.5) (end 173.99 62.36) (width 0.4) (layer F.Cu) (net 2))
  (via (at 184.15 59.69) (size 1.6) (drill 0.8) (layers F.Cu B.Cu) (net 2))
  (segment (start 181.61 62.23) (end 184.15 59.69) (width 0.4) (layer F.Cu) (net 2))
  (via (at 166.37 58.42) (size 1.6) (drill 0.8) (layers F.Cu B.Cu) (net 2))
  (segment (start 169.745 57.15) (end 167.64 57.15) (width 0.4) (layer F.Cu) (net 2))
  (segment (start 167.64 57.15) (end 166.37 58.42) (width 0.4) (layer F.Cu) (net 2))
  (segment (start 172.72 57.15) (end 178.635 57.15) (width 0.4) (layer F.Cu) (net 3))
  (segment (start 161.29 76.4175) (end 158.5325 73.66) (width 0.4) (layer F.Cu) (net 4))
  (segment (start 161.29 77.47) (end 161.29 76.4175) (width 0.4) (layer F.Cu) (net 4))
  (via (at 176.53 68.58) (size 1.6) (drill 0.8) (layers F.Cu B.Cu) (net 5))
  (segment (start 172.655 67.945) (end 175.895 67.945) (width 0.4) (layer F.Cu) (net 5))
  (segment (start 175.895 67.945) (end 176.53 68.58) (width 0.4) (layer F.Cu) (net 5))
  (segment (start 176.53 68.58) (end 171.45 73.66) (width 0.4) (layer B.Cu) (net 5))
  (via (at 165.1 73.66) (size 1.6) (drill 0.8) (layers F.Cu B.Cu) (net 5))
  (segment (start 171.45 73.66) (end 165.1 73.66) (width 0.4) (layer B.Cu) (net 5))
  (segment (start 165.1 73.66) (end 161.5075 73.66) (width 0.4) (layer F.Cu) (net 5))
  (segment (start 158.5325 68.7975) (end 161.29 66.04) (width 0.4) (layer F.Cu) (net 6))
  (segment (start 158.5325 69.85) (end 158.5325 68.7975) (width 0.4) (layer F.Cu) (net 6))
  (segment (start 161.5075 68.975) (end 161.5075 69.85) (width 0.4) (layer F.Cu) (net 7))
  (segment (start 161.5675 68.915) (end 161.5075 68.975) (width 0.4) (layer F.Cu) (net 7))
  (segment (start 167.405 68.915) (end 161.5675 68.915) (width 0.4) (layer F.Cu) (net 7))
  (segment (start 167.705 69.215) (end 167.405 68.915) (width 0.4) (layer F.Cu) (net 7))
  (segment (start 179.275 70.785) (end 180.21 69.85) (width 0.4) (layer F.Cu) (net 9))
  (segment (start 180.21 69.85) (end 181.61 69.85) (width 0.4) (layer F.Cu) (net 9))
  (segment (start 172.955 70.785) (end 179.275 70.785) (width 0.4) (layer F.Cu) (net 9))
  (segment (start 172.655 70.485) (end 172.955 70.785) (width 0.4) (layer F.Cu) (net 9))
  (segment (start 164.969999 76.797999) (end 164.969999 79.879999) (width 0.4) (layer F.Cu) (net 11))
  (segment (start 165.567998 76.2) (end 164.969999 76.797999) (width 0.4) (layer F.Cu) (net 11))
  (segment (start 165.1 80.01) (end 171.840002 80.01) (width 0.4) (layer F.Cu) (net 11))
  (segment (start 167.705 70.485) (end 167.705 74.865) (width 0.4) (layer F.Cu) (net 11))
  (segment (start 166.902998 74.865) (end 165.567998 76.2) (width 0.4) (layer F.Cu) (net 11))
  (segment (start 167.705 74.865) (end 166.902998 74.865) (width 0.4) (layer F.Cu) (net 11))
  (segment (start 175.26 76.590002) (end 175.26 72.39) (width 0.4) (layer F.Cu) (net 11))
  (segment (start 164.969999 79.879999) (end 165.1 80.01) (width 0.4) (layer F.Cu) (net 11))
  (segment (start 171.840002 80.01) (end 175.26 76.590002) (width 0.4) (layer F.Cu) (net 11))
  (segment (start 172.355 68.915) (end 171.115 68.915) (width 0.4) (layer F.Cu) (net 12))
  (segment (start 172.655 69.215) (end 172.355 68.915) (width 0.4) (layer F.Cu) (net 12))
  (segment (start 171.115 68.915) (end 170.18 69.85) (width 0.4) (layer F.Cu) (net 12))
  (segment (start 170.18 74.8) (end 171.45 76.07) (width 0.4) (layer F.Cu) (net 12))
  (segment (start 171.45 76.07) (end 171.45 77.47) (width 0.4) (layer F.Cu) (net 12))
  (segment (start 170.18 69.85) (end 170.18 74.8) (width 0.4) (layer F.Cu) (net 12))
  (segment (start 176.53 64.9875) (end 175.655 64.9875) (width 0.4) (layer F.Cu) (net 13))
  (segment (start 158.42 57.69) (end 163.395 57.69) (width 0.4) (layer F.Cu) (net 13))
  (segment (start 156.645 57.69) (end 158.42 57.69) (width 0.4) (layer F.Cu) (net 13))
  (segment (start 176.53 64.9875) (end 176.53 66.04) (width 0.4) (layer F.Cu) (net 13))
  (via (at 179.07 68.58) (size 1.6) (drill 0.8) (layers F.Cu B.Cu) (net 13))
  (segment (start 176.53 66.04) (end 179.07 68.58) (width 0.4) (layer F.Cu) (net 13))
  (segment (start 177.669999 67.179999) (end 171.319999 67.179999) (width 0.4) (layer B.Cu) (net 13))
  (segment (start 179.07 68.58) (end 177.669999 67.179999) (width 0.4) (layer B.Cu) (net 13))
  (segment (start 171.319999 67.179999) (end 166.500001 67.179999) (width 0.4) (layer B.Cu) (net 13))
  (segment (start 166.500001 67.179999) (end 166.37 67.049998) (width 0.4) (layer B.Cu) (net 13))
  (via (at 166.37 60.96) (size 1.6) (drill 0.8) (layers F.Cu B.Cu) (net 13))
  (segment (start 166.500001 67.179999) (end 166.500001 61.090001) (width 0.4) (layer B.Cu) (net 13))
  (segment (start 166.500001 61.090001) (end 166.37 60.96) (width 0.4) (layer B.Cu) (net 13))
  (segment (start 163.395 57.985) (end 163.395 57.69) (width 0.4) (layer F.Cu) (net 13))
  (segment (start 166.37 60.96) (end 163.395 57.985) (width 0.4) (layer F.Cu) (net 13))
  (segment (start 167.405 67.645) (end 164.165 67.645) (width 0.4) (layer F.Cu) (net 14))
  (segment (start 167.705 67.945) (end 167.405 67.645) (width 0.4) (layer F.Cu) (net 14))
  (segment (start 163.395 66.875) (end 163.395 61.69) (width 0.4) (layer F.Cu) (net 14))
  (segment (start 164.165 67.645) (end 163.395 66.875) (width 0.4) (layer F.Cu) (net 14))
  (segment (start 158.42 61.69) (end 163.395 61.69) (width 0.4) (layer F.Cu) (net 14))
  (segment (start 156.645 61.69) (end 158.42 61.69) (width 0.4) (layer F.Cu) (net 14))

  (zone (net 2) (net_name GND) (layer B.Cu) (tstamp 5E6BF09A) (hatch edge 0.508)
    (connect_pads (clearance 0.508))
    (min_thickness 0.254)
    (fill yes (arc_segments 32) (thermal_gap 0.508) (thermal_bridge_width 0.508))
    (polygon
      (pts
        (xy 186.69 80.01) (xy 153.67 80.01) (xy 153.67 59.69) (xy 153.67 55.88) (xy 160.02 55.88)
        (xy 186.69 55.88)
      )
    )
    (filled_polygon
      (pts
        (xy 186.563 79.883) (xy 153.797 79.883) (xy 153.797 73.518665) (xy 163.665 73.518665) (xy 163.665 73.801335)
        (xy 163.720147 74.078574) (xy 163.82832 74.339727) (xy 163.985363 74.574759) (xy 164.185241 74.774637) (xy 164.420273 74.93168)
        (xy 164.681426 75.039853) (xy 164.958665 75.095) (xy 165.241335 75.095) (xy 165.518574 75.039853) (xy 165.779727 74.93168)
        (xy 166.014759 74.774637) (xy 166.214637 74.574759) (xy 166.26793 74.495) (xy 171.408982 74.495) (xy 171.45 74.49904)
        (xy 171.491018 74.495) (xy 171.491019 74.495) (xy 171.613689 74.482918) (xy 171.771087 74.435172) (xy 171.916146 74.357636)
        (xy 172.043291 74.253291) (xy 172.069446 74.221421) (xy 176.294583 69.996286) (xy 176.388665 70.015) (xy 176.671335 70.015)
        (xy 176.948574 69.959853) (xy 177.209727 69.85168) (xy 177.444759 69.694637) (xy 177.644637 69.494759) (xy 177.8 69.262241)
        (xy 177.955363 69.494759) (xy 178.155241 69.694637) (xy 178.390273 69.85168) (xy 178.651426 69.959853) (xy 178.928665 70.015)
        (xy 179.211335 70.015) (xy 179.488574 69.959853) (xy 179.749727 69.85168) (xy 179.984759 69.694637) (xy 180.184637 69.494759)
        (xy 180.34168 69.259727) (xy 180.449853 68.998574) (xy 180.505 68.721335) (xy 180.505 68.438665) (xy 180.449853 68.161426)
        (xy 180.34168 67.900273) (xy 180.184637 67.665241) (xy 179.984759 67.465363) (xy 179.749727 67.30832) (xy 179.488574 67.200147)
        (xy 179.211335 67.145) (xy 178.928665 67.145) (xy 178.834582 67.163715) (xy 178.289445 66.618578) (xy 178.26329 66.586708)
        (xy 178.136145 66.482363) (xy 177.991086 66.404827) (xy 177.833688 66.357081) (xy 177.711018 66.344999) (xy 177.711017 66.344999)
        (xy 177.669999 66.340959) (xy 177.628981 66.344999) (xy 167.335001 66.344999) (xy 167.335001 62.024395) (xy 167.484637 61.874759)
        (xy 167.64168 61.639727) (xy 167.749853 61.378574) (xy 167.805 61.101335) (xy 167.805 60.818665) (xy 167.749853 60.541426)
        (xy 167.64168 60.280273) (xy 167.484637 60.045241) (xy 167.284759 59.845363) (xy 167.049727 59.68832) (xy 166.788574 59.580147)
        (xy 166.511335 59.525) (xy 166.228665 59.525) (xy 165.951426 59.580147) (xy 165.690273 59.68832) (xy 165.455241 59.845363)
        (xy 165.255363 60.045241) (xy 165.09832 60.280273) (xy 164.990147 60.541426) (xy 164.935 60.818665) (xy 164.935 61.101335)
        (xy 164.990147 61.378574) (xy 165.09832 61.639727) (xy 165.255363 61.874759) (xy 165.455241 62.074637) (xy 165.665002 62.214794)
        (xy 165.665001 66.597628) (xy 165.594828 66.728912) (xy 165.547082 66.88631) (xy 165.53096 67.049998) (xy 165.547082 67.213686)
        (xy 165.594828 67.371084) (xy 165.672364 67.516143) (xy 165.750562 67.611427) (xy 165.880555 67.74142) (xy 165.90671 67.77329)
        (xy 166.033855 67.877635) (xy 166.178914 67.955171) (xy 166.336312 68.002917) (xy 166.458982 68.014999) (xy 166.5 68.019039)
        (xy 166.500001 68.019039) (xy 166.541019 68.014999) (xy 175.210799 68.014999) (xy 175.150147 68.161426) (xy 175.095 68.438665)
        (xy 175.095 68.721335) (xy 175.113714 68.815417) (xy 171.104133 72.825) (xy 166.26793 72.825) (xy 166.214637 72.745241)
        (xy 166.014759 72.545363) (xy 165.779727 72.38832) (xy 165.518574 72.280147) (xy 165.241335 72.225) (xy 164.958665 72.225)
        (xy 164.681426 72.280147) (xy 164.420273 72.38832) (xy 164.185241 72.545363) (xy 163.985363 72.745241) (xy 163.82832 72.980273)
        (xy 163.720147 73.241426) (xy 163.665 73.518665) (xy 153.797 73.518665) (xy 153.797 56.007) (xy 186.563 56.007)
      )
    )
  )
)
